^C:\USERS\PROBA\SOURCE\REPOS\HOMEWORK19\HOMEWORK19\DEBUG\SOURCE.OBJ
C:\USERS\PROBA\SOURCE\REPOS\HOMEWORK19\DEBUG\HOMEWORK19.EXE
C:\USERS\PROBA\SOURCE\REPOS\HOMEWORK19\DEBUG\HOMEWORK19.ILK
C:\USERS\PROBA\SOURCE\REPOS\HOMEWORK19\DEBUG\HOMEWORK19.PDB
